798032 865651 525
716946 800310 468
245168 161676 443
203890 593227 470
88545 157297 383
731283 649044 504
861239 55017 525
108142 543894 470
466339 106438 449
960846 632655 525
44055 141689 354
285013 542678 470
153504 999234 525
37029 571313 470
607861 142592 470
704209 434559 509
372561 584641 470
69076 779401 509
827198 604484 509
401089 572696 470
539008 925011 525
709801 673938 504
262774 504536 449
957292 506930 525
724871 692427 504
219138 464620 449
873280 769288 525
401607 907292 525
949695 528226 525
557075 248577 470
401561 178486 443
591454 973958 525
184856 88999 383
281905 577097 470
307739 963980 525
804655 664629 504
195121 576265 470
142295 705856 509
106743 167300 383
840762 123970 525
377330 752841 509
416583 841873 525
299595 963852 525
419596 190108 449
728620 190050 509
917682 532346 525
421693 685010 509
563421 85200 470
975796 238383 525
396568 18865 443
353113 583029 470
120201 335349 443
857919 256325 525
982304 36070 525
962426 246126 525
845560 450751 525
632115 414343 509
567028 214500 470
778083 477557 509
832140 940527 525
387066 433908 449
7985 875206 525
943391 571626 525
315292 394043 441
89474 917572 525
817238 351039 509
7966 302027 443
158541 211870 373
84815 193628 383
913271 970733 507
257815 960422 525
114459 384204 443
207935 709354 509
700989 931405 525
163773 751072 509
389346 778078 509
742968 753195 393
750995 969924 525
842230 476344 525
995110 66294 525
334362 413536 449
978148 865454 507
212462 711973 509
389254 630622 509
884925 737576 525
673363 908794 525
572512 797772 509
322233 924699 525
41192 235385 443
56841 10953 340
151380 83555 375
732273 226814 509
964196 355164 525
52910 154623 375
674883 250160 509
49291 386292 443
409636 193052 443
217707 858912 525
188347 318193 443
150835 138735 375
412074 305717 449
136801 481212 449
62268 584991 470
197831 866204 525
287184 273094 389
935778 938035 383
254851 412819 449
280724 526829 470
455958 297434 449
883665 425079 525
426178 997654 525
23350 201311 383
925646 172299 525
232730 642888 509
500956 197836 449
55071 875186 525
320531 906140 525
456318 383551 449
63880 638124 509
948124 925257 507
118851 459849 449
195493 395888 443
722335 636849 504
125224 110452 349
24888 353660 443
583542 408066 470
20910 529174 470
920489 902874 476
437640 449296 400
719545 152073 509
872121 756099 525
939627 360547 525
516804 830530 509
147427 535494 470
419340 40975 449
493075 858813 525
244613 886699 525
509142 474668 426
916052 277887 525
765974 109396 509
332375 771860 509
527342 247980 470
963015 251985 525
66954 387966 443
653093 505081 509
676276 816623 504
81231 445197 449
587956 501733 470
76499 597669 470
763452 187292 509
427172 9754 449
905541 251702 525
884695 613046 525
903551 239771 525
375811 529586 470
622328 192175 470
232916 16395 443
808253 167168 509
582271 101115 470
38256 511627 449
180350 436190 449
166246 969357 525
805896 260016 509
455327 353220 449
920981 551788 525
408120 472852 449
663677 902965 525
64329 951500 525
459154 692043 509
594737 340391 470
456990 146596 449
204577 407937 443
902434 933152 476
231758 524703 470
896246 160379 525
37423 97961 351
547760 691265 509
565403 462816 470
510610 920768 525
544494 964187 525
290398 973706 525
983925 835080 525
190936 632074 509
567050 1956 470
247344 858163 525
746770 497000 509
660704 780057 504
630128 324262 509
93462 504750 449
844335 101854 525
130398 243434 443
73469 945839 525
800433 334266 509
652548 909295 525
611793 204243 470
402711 174672 443
277948 779937 509
674484 113052 509
994396 702891 525
83500 305624 443
118054 835446 509
329641 930538 525
158482 432305 449
334938 31717 443
414369 738492 509
732058 255785 509
911051 262639 525
561053 655465 509
466359 410050 444
920405 113663 525
534572 179989 470
802569 739570 468
848406 316796 525
542008 191117 470
127793 117187 336
634504 843586 525
272583 45965 443
15264 212658 383
456497 330527 449
322064 502312 449
600824 613565 403
778688 944989 525
226053 751588 509
555723 367467 470
382550 306365 441
509779 513892 470
617682 638362 509
259344 331606 407
606502 673886 509
121091 536745 470
878158 341049 525
48762 627880 509
815098 547957 509
447343 103981 449
409473 752508 509
355646 250800 441
523940 788584 509
838938 711251 525
245925 232808 381
246142 727552 509
288310 665719 509
846890 897207 445
327142 602482 470
30369 690586 509
115425 645769 509
879194 332751 525
751241 56401 509
723977 341381 509
474811 615664 470
819339 786556 468
