464623 538926 470
134723 553171 470
842430 850433 419
86874 55649 351
636799 876246 525
349328 628801 509
508480 15124 449
302558 752313 509
244177 537263 470
195820 317583 443
433941 554015 470
735217 360185 509
364366 691186 509
114152 861854 525
875929 458474 525
120863 745879 509
946582 892688 507
204913 269177 443
744518 427637 509
558830 126095 470
359049 263653 441
870417 30097 525
426444 832745 509
945826 384033 525
134087 336103 443
909638 815629 525
240518 847000 525
791176 105607 509
415863 472565 444
639051 55373 509
53368 880631 525
577382 319920 470
157228 48996 383
612918 639938 509
330384 753593 509
104201 738275 509
735534 394516 509
761736 8285 509
350611 864988 525
351538 984098 525
899798 105531 525
491657 851732 525
812491 900529 525
940593 121907 525
35276 84862 351
415377 178657 449
128539 67042 354
711101 114141 509
861311 42853 525
677157 186058 509
416909 580572 470
887985 906644 445
384514 330351 441
639040 923911 525
404994 767642 509
586611 359207 470
932371 324540 525
538233 451355 470
34948 741567 509
207416 699735 509
994418 326680 525
117754 784221 509
305353 493244 449
386485 186867 443
53586 628912 509
563286 960703 525
258612 109101 443
770519 920922 525
746790 844649 525
174471 962040 525
876249 181057 525
141101 610692 470
316736 554064 470
193346 741590 509
838559 762255 525
298431 999328 525
694274 717099 504
973190 359563 525
281557 898537 525
216400 478972 449
576576 964345 525
374542 95754 443
217032 336361 443
550331 293721 470
361650 822177 509
209942 293593 443
157751 457509 449
990846 56032 525
817987 228845 509
781176 180925 509
899819 613967 525
640601 842117 525
245358 528497 470
642889 819454 504
88399 262739 443
903532 959535 507
372171 215386 443
480684 567236 470
15453 28322 308
151791 772333 509
667710 357568 509
697426 895708 525
6652 822091 509
78424 560030 470
11892 761118 509
584758 412635 470
485593 543925 470
32213 519261 470
954067 179476 525
481090 465081 413
868918 559791 525
364409 457742 449
438257 99410 449
298808 601097 470
740560 197532 509
697316 232506 509
837655 993341 525
967468 758184 525
41928 698663 509
192323 333794 443
699078 521339 509
854344 84765 525
618081 237607 470
610858 269950 470
343539 190 443
476956 345226 449
818542 914496 525
228690 408158 443
851172 639947 525
276403 221547 443
100519 963124 525
806289 880906 525
577632 930875 525
426443 899192 525
568897 821172 509
247027 457098 449
231642 593213 470
338605 397524 441
670519 423052 509
451385 294149 449
988127 179473 525
461775 420977 444
373770 448742 449
303192 290600 371
774166 681646 504
271855 904638 525
169270 441438 449
2447 106317 354
29242 512541 470
73318 408007 443
338810 197829 443
935821 853987 476
910972 442749 525
477236 825716 509
443770 814268 509
628 547238 470
262835 995662 525
883283 697721 525
740399 266878 509
905091 811483 525
428894 7627 449
661565 202331 509
713448 655813 504
396379 718521 509
177958 346402 443
423138 719959 509
931212 753178 525
928496 538888 525
15721 151117 375
826423 241759 509
260574 113368 443
356038 733664 509
324675 818547 509
304634 244469 407
980268 783739 525
990098 51641 525
783967 140114 509
497607 783306 509
361595 123873 443
856460 502999 525
283290 568513 470
591724 804978 509
207476 935469 525
984571 601194 525
291772 128556 443
369092 336955 441
134971 365257 443
759722 890184 525
279105 252467 407
558939 242818 470
318924 283980 389
19203 861434 525
420058 944725 525
705206 416378 509
222968 586175 470
760030 251022 509
81726 714083 509
306388 531058 470
970809 835409 525
667503 394370 509
10073 316112 443
187831 401973 443
837844 795738 525
943762 280811 525
755625 823281 468
852490 306477 525
108323 706278 509
387490 202616 443
244131 346385 441
135728 139983 331
891461 516955 525
180078 578752 470
916363 532817 525
169974 300725 443
158055 84048 383
916373 316604 525
289546 876961 525
717519 241873 509
578026 125966 470
727439 975126 525
765113 614621 509
187863 365077 443
674616 876671 525
36665 56842 340
833025 813274 450
126649 403544 443
80275 116114 354
47965 755580 509
34320 59674 340
417111 647386 509
810285 380668 509
131094 276534 443
696980 262342 509
428534 918634 525
400037 560171 470
904498 611314 525
212609 364629 443
129076 123026 331
180229 879386 525
582752 782754 509
909374 779428 525
713464 83695 509
141524 135476 344
388965 244261 441
953410 601705 525
66518 842414 525
390622 413788 449
784044 999323 525
515349 389724 470
597028 384794 470
