352991 865759 525
715521 868150 525
941528 993740 458
29543 158523 383
242634 763822 509
14032 649872 509
504441 653179 509
735925 920826 525
453319 676208 509
819775 915764 525
529615 577373 452
566037 610902 434
955458 961709 414
258844 773067 509
124378 314073 443
330805 460025 449
804575 956508 525
562076 615843 447
617389 941681 525
29851 703528 509
724092 792278 468
926349 965102 507
429398 431351 325
605904 692557 509
969157 996478 458
10731 101595 351
983743 989298 427
305330 741188 509
780943 896575 525
696974 934270 525
4413 720796 509
408607 896351 525
670001 827916 504
318986 733296 509
501575 963116 525
148824 671866 509
827433 970805 525
423264 526893 470
100559 735843 509
883081 896691 445
940385 954999 414
666615 922760 525
111826 420100 449
794654 909612 525
61686 303818 443
754193 822538 468
767697 965604 525
586433 637208 509
861138 925189 476
913420 940148 507
35310 354702 443
677583 831858 504
437945 814794 509
725231 765251 424
122338 305514 443
77584 589822 470
992733 999474 440
716391 825125 468
754114 834230 468
826952 872783 525
166347 904592 525
615827 787278 509
949542 984947 458
497787 700433 509
936258 979317 507
58858 468776 449
909680 924226 476
446832 845948 525
601079 835314 509
987598 994901 365
276353 602121 470
959878 996013 458
559204 696617 509
865206 869825 388
696237 943549 525
211037 617041 470
572045 716969 509
857507 861720 370
27409 99379 351
586488 972192 525
29015 902887 525
30028 209883 383
208618 494544 449
298474 420424 449
803776 836241 450
847561 889738 445
191970 351651 443
743554 782885 468
745615 772428 468
726929 731558 380
822556 868548 525
531254 625709 452
52639 282464 443
387417 997496 525
722335 977680 525
154840 780742 509
204407 331940 443
172107 578826 470
815507 883548 525
206086 461876 449
167433 761925 509
149758 160584 383
454501 493179 444
320431 667389 509
326444 379764 441
469714 894936 525
632302 714131 504
828047 941177 525
66949 956378 525
553732 991130 525
245177 840828 525
823045 988450 525
771138 945896 525
399169 484902 449
562347 614298 434
888417 958514 507
552301 972702 525
856574 911150 476
267298 592880 470
874249 998748 507
911784 935027 476
139858 468767 449
931956 950509 507
162411 430127 449
587733 879472 525
842824 928343 476
983731 999768 440
466378 949810 525
782102 822906 468
671276 795805 504
726292 831893 468
664650 944141 525
780643 987793 525
43262 990275 525
309499 433441 449
58510 956978 525
542905 789456 509
823551 960493 525
400544 718701 509
270801 805119 509
650683 707203 504
397814 989834 525
584025 988729 525
16140 697596 509
29760 584993 470
405578 736402 509
454655 942381 525
850476 878825 432
323070 334223 384
59610 791887 509
608392 781732 509
571145 861880 525
419362 776832 509
606693 711526 509
128782 177298 383
868116 991581 507
807435 877099 525
294824 832184 509
252294 478462 449
211095 450601 449
894757 898910 370
157303 621504 470
7608 146803 375
44896 80029 351
841040 848803 419
735870 858403 525
261268 634410 509
236015 520226 470
565132 865777 525
473592 755869 509
396585 573196 470
321412 870179 525
536705 555027 452
348917 697144 509
578147 986307 525
546535 986551 525
677096 885412 525
414772 609860 470
393518 870722 525
126707 927503 525
63384 992662 525
367748 647379 509
609802 645460 509
44077 273307 443
474428 675795 509
453540 601886 470
434380 549135 470
610256 995611 525
444346 914759 525
227760 669358 509
440176 825968 509
533561 824476 509
822715 998386 525
890336 901373 401
35789 482620 449
460618 460710 201
122034 311795 443
428122 519855 470
390829 605565 470
551450 684793 509
783146 978344 525
677722 936625 525
264368 801049 509
594035 742930 509
626461 821874 504
633500 850340 525
725067 804071 468
817695 860571 525
880982 949245 507
477522 719516 509
721666 934208 525
490279 885473 525
516948 716725 509
185043 497563 449
161143 406930 443
185986 981221 525
77970 416414 449
835167 917558 525
620974 884693 525
228121 886959 525
788345 864939 525
210033 229932 386
308371 788315 509
355651 411373 449
364571 946957 525
596554 991715 525
547261 755875 509
640754 909725 525
772425 845229 525
181787 496625 449
59572 602506 470
296540 823194 509
265066 737675 509
438497 933538 525
140858 313667 443
193642 452851 449
635985 764256 504
446869 660771 509
404570 772635 509
41254 769117 509
851715 887637 445
685877 955552 525
873834 980540 507
407999 674310 509
84890 277643 443
332348 552214 470
750933 840196 525
463683 556801 470
914694 971597 507
350296 858109 525
