785964 689582 504
175143 561592 470
586400 939507 525
446899 389042 449
674420 149616 509
802381 709503 468
97087 106814 354
275515 128750 443
364686 186088 443
395496 573516 470
796038 775679 437
751504 837019 468
467047 39913 449
583609 96470 470
305049 875177 525
309318 377457 441
538350 317436 470
126646 745160 509
312671 433913 449
237827 997811 525
815877 946999 525
154131 195981 383
992937 937733 507
508673 663529 509
700949 733123 504
431198 937018 525
502093 718253 509
334687 507327 449
682314 83873 509
678485 496451 509
827918 87753 509
169146 821465 509
264420 410526 449
908959 348371 525
921202 743728 525
628561 342056 509
290957 737093 509
505761 278595 449
76102 585852 470
514959 476265 470
154920 226543 386
502877 309206 449
232471 115690 443
459183 571949 470
334092 767930 509
642123 200056 509
410722 184645 449
625584 622211 385
10028 901275 525
292166 474509 449
457139 258037 449
845267 432203 525
647962 39870 509
74978 610238 470
545930 674405 509
724596 538833 509
476682 449337 444
304847 900151 525
612704 738454 509
621962 28423 470
623486 62274 470
260581 875230 525
323936 773226 509
792925 59259 509
644735 621112 509
328580 167758 443
995048 652058 525
589792 31673 470
445427 634856 509
709982 564694 509
731527 959713 525
684966 68100 509
58864 722703 509
800672 563705 509
885229 981857 507
569424 802709 509
819477 934521 525
203834 897775 525
638749 511659 509
380004 781870 509
278597 737920 509
754731 180785 509
607100 591210 403
675422 974310 525
713446 693481 504
157162 666758 509
762088 871822 525
266930 116784 443
171909 627520 509
620631 525500 452
759936 331202 509
29128 508857 449
210867 48124 383
224324 314566 443
471312 258965 449
164168 233151 443
430839 808153 509
723254 420164 509
592685 214289 470
762001 412627 509
807744 199645 509
45073 277358 443
803512 765545 468
766489 431144 509
467056 322771 449
833212 216555 509
905300 488987 525
248827 451816 449
471916 222912 449
246147 198287 443
463404 216835 449
170312 999215 525
508106 814688 509
392649 76296 443
520453 575812 452
847964 406933 525
325962 125746 443
93068 144179 375
718159 793086 468
185184 49397 383
364793 965489 525
519670 339760 470
112709 410693 449
834398 254340 509
493537 10792 449
879854 390770 525
281806 675803 509
919316 945910 507
187847 683428 509
841100 709669 525
258518 751241 509
847898 782802 525
130280 639652 509
746351 975099 525
112616 438260 449
996574 296521 525
851971 473434 525
31227 122265 354
256948 939416 525
546847 451744 470
771281 62211 509
161436 93011 383
994623 338592 525
131835 543026 470
865137 725457 525
658327 86506 509
588366 559273 434
734562 512933 509
910826 119537 525
966057 51613 525
300688 912673 525
783246 767698 468
250437 929170 525
796438 369393 509
359774 749142 509
290049 698014 509
57975 325359 443
663546 220730 509
310338 152440 443
585921 703147 509
482403 548731 470
421256 919009 525
572578 933737 525
212412 346065 443
597928 480951 470
64836 954794 525
444975 638856 509
998989 239220 525
723479 934303 525
711060 664057 504
191888 691258 509
566829 388656 470
125542 246625 443
899578 46612 525
435558 40028 449
813500 257467 509
137487 722079 509
277646 53235 443
222568 130022 386
475471 936196 525
705481 41751 509
236891 264874 407
320706 66367 443
585972 520313 452
136758 173284 383
553125 456626 470
52616 937640 525
812026 871292 525
800112 578466 509
770264 8012 509
188110 366629 443
880924 618732 525
447816 4132 449
477152 617406 470
141967 590585 470
778234 285045 509
552209 143631 470
497900 299774 449
887575 460577 525
277459 183548 443
509453 689210 509
656535 881118 525
361904 155389 443
242400 492042 449
89853 205428 383
144230 34724 375
228735 931662 525
7697 834828 509
326170 854858 525
569289 569154 240
145924 83734 375
398633 165671 443
991014 661515 525
250564 562913 470
67502 780966 509
191265 615639 470
150454 185102 383
197398 553764 470
340096 918910 525
109942 484568 449
661099 92469 509
619185 601971 447
578391 671691 509
917864 468033 525
232280 262568 381
869114 634202 525
946938 320904 525
474938 648053 509
591613 213554 470
707723 321018 509
491417 9509 449
156772 400487 443
366010 998707 525
920973 700034 525
27898 56385 340
871461 16111 525
375516 284733 441
184383 260192 443
316063 159473 443
332228 686968 509
116281 19472 354
273060 571912 470
115528 559597 470
654835 249962 509
232972 379512 441
832523 828202 419
677207 124762 509
158824 99644 383
779382 767006 468
651047 116941 509
